id,diagnosis,paradigm,AUC,round,N_avr_targets,N_avr_nontargets
PD_k,CONTROL_ADULT,p300_sl,0.680971512053,1,74,74
AD_k,CONTROL_ADULT,p300_sl,0.632253470986,1,53,53
MP_k,CONTROL_ADULT,p300_sl,0.679183673469,3,35,35
OK_k,CONTROL_ADULT,p300_sl,0.73625,1,40,40
MB_k,CONTROL_ADULT,p300_sl,0.752893518519,1,72,72
AK_k,CONTROL_ADULT,p300_sl,0.689189189189,1,74,74
PR_k,CONTROL_ADULT,p300_sl,0.702222222222,1,15,15
MD_k,CONTROL_ADULT,p300_sl,0.678889284443,1,53,53
C08,CONTROL_CHILDREN,p300_sl,0.816116819903,4,43,43
C10,CONTROL_CHILDREN,p300_sl,0.624121146566,4,43,43
C09,CONTROL_CHILDREN,p300_sl,0.700373455903,4,59,59
C05,CONTROL_CHILDREN,p300_sl,0.624485596708,4,54,54
C11,CONTROL_CHILDREN,p300_sl,0.741637831603,4,51,51
C03,CONTROL_CHILDREN,p300_sl,0.733727810651,4,26,26
C07,CONTROL_CHILDREN,p300_sl,0.694706994329,4,46,46
C01,CONTROL_CHILDREN,p300_sl,0.814049586777,4,44,44
C02,CONTROL_CHILDREN,p300_sl,0.77487244898,4,56,56
AS,EMCS,p300_sl,0.702029191883,3,53,53
LK,EMCS,p300_sl,0.5625,2,8,8
MZ,EMCS,p300_sl,0.513313609467,2,52,52
MZ,EMCS,p300_sl,0.5625,3,12,12
ML,EMCS,p300_sl,0.80109739369,1,27,27
DR,MCS-,p300_sl,0.599253088193,3,59,59
DR,MCS-,p300_sl,0.571088637716,1,41,41
WS,MCS-,p300_sl,0.64125,1,40,40
DR,MCS-,p300_sl,0.8624,2,25,25
WS,MCS-,p300_sl,0.564760026298,2,39,39
JK,MCS-,p300_sl,0.537514792899,3,65,65
JK,MCS-,p300_sl,0.5869508254,2,107,107
MD,MCS+,p300_sl,0.713013501867,1,59,59
WS,MCS+,p300_sl,0.383975026015,3,31,31
MB,MCS+,p300_sl,0.57174744898,2,56,56
RN,UWS,p300_sl,0.407337278107,1,65,65
MW,UWS,p300_sl,0.543184183143,1,31,31
AS,UWS,p300_sl,0.60087284269,2,71,71
MD_k,CONTROL_ADULT,p300_wz,0.871604938272,1,45,45
OK_k,CONTROL_ADULT,p300_wz,0.778333333333,1,60,60
PD_k,CONTROL_ADULT,p300_wz,0.760743103772,1,73,73
PR_k,CONTROL_ADULT,p300_wz,0.800612244898,1,70,70
AK_k,CONTROL_ADULT,p300_wz,0.897216796875,1,64,64
AD_k,CONTROL_ADULT,p300_wz,0.77450239355,1,63,63
MB_k,CONTROL_ADULT,p300_wz,0.674494649227,1,58,58
MP_k,CONTROL_ADULT,p300_wz,0.886048210373,3,37,37
C04,CONTROL_CHILDREN,p300_wz,0.537485582468,4,51,51
C10,CONTROL_CHILDREN,p300_wz,0.713659605551,4,37,37
C09,CONTROL_CHILDREN,p300_wz,0.632478632479,4,39,39
C01,CONTROL_CHILDREN,p300_wz,0.731866825208,4,58,58
C11,CONTROL_CHILDREN,p300_wz,0.684310018904,4,46,46
C05,CONTROL_CHILDREN,p300_wz,0.717617659309,4,49,49
C03,CONTROL_CHILDREN,p300_wz,0.651701323251,4,46,46
C07,CONTROL_CHILDREN,p300_wz,0.894383230314,4,61,61
MZ,EMCS,p300_wz,0.61865189289,2,57,57
ML,EMCS,p300_wz,0.727916281933,1,57,57
AS,EMCS,p300_wz,0.603456790123,3,45,45
MZ,EMCS,p300_wz,0.584166666667,3,60,60
LK,EMCS,p300_wz,0.595041322314,2,11,11
DR,MCS-,p300_wz,0.592737629049,1,53,53
JK,MCS-,p300_wz,0.516988062443,4,66,66
DR,MCS-,p300_wz,0.578280983686,2,111,111
JK,MCS-,p300_wz,0.462158203125,3,64,64
JK,MCS-,p300_wz,0.524488647026,2,73,73
WS,MCS-,p300_wz,0.585034013605,1,42,42
DR,MCS-,p300_wz,0.439192003332,3,98,98
WS,MCS-,p300_wz,0.555880204529,2,37,37
MB,MCS+,p300_wz,0.551085795657,2,53,53
WS,MCS+,p300_wz,0.596450617284,3,36,36
MD,MCS+,p300_wz,0.49787808642,1,72,72
AS,UWS,p300_wz,0.53892733564,2,68,68
MW,UWS,p300_wz,0.852387511478,3,66,66
JC,UWS,p300_wz,0.572657311,4,47,47
JM_k,CONTROL_ADULT,p300_sl_tony,0.728191000918,4,66,66
MP_k,CONTROL_ADULT,p300_sl_tony,0.687825182102,3,31,31
STDA1,CONTROL_ADULT,p300_sl_tony,0.771814599362,4,73,73
STDA2,CONTROL_ADULT,p300_sl_tony,0.67273673257,4,62,62
C11,CONTROL_CHILDREN,p300_sl_tony,0.60847107438,4,44,44
C10,CONTROL_CHILDREN,p300_sl_tony,0.5524,4,50,50
C01,CONTROL_CHILDREN,p300_sl_tony,0.850961538462,4,52,52
C05,CONTROL_CHILDREN,p300_sl_tony,0.564744801512,4,46,46
C09,CONTROL_CHILDREN,p300_sl_tony,0.589923469388,4,56,56
C07,CONTROL_CHILDREN,p300_sl_tony,0.827003121748,4,62,62
MZ,EMCS,p300_sl_tony,0.68359375,3,32,32
MZ,EMCS,p300_sl_tony,0.50826446281,2,44,44
AS,EMCS,p300_sl_tony,0.565080718206,3,137,137
JN,EMCS,p300_sl_tony,0.744,3,25,25
MB,EMCS,p300_sl_tony,0.594463853803,3,61,61
DR,MCS-,p300_sl_tony,0.660057919358,3,67,67
JK,MCS-,p300_sl_tony,0.275782398656,4,69,69
JK,MCS-,p300_sl_tony,0.609795918367,2,70,70
WS,MCS-,p300_sl_tony,0.50837483024,2,47,47
JK,MCS-,p300_sl_tony,0.668252080856,3,29,29
KP,MCS-,p300_sl_tony,0.561459417274,3,124,124
DR,MCS-,p300_sl_tony,0.5275,2,60,60
WS,MCS+,p300_sl_tony,0.573411249087,3,37,37
AS,UWS,p300_sl_tony,0.583700903172,2,69,69
JC,UWS,p300_sl_tony,0.276543209877,3,45,45
MW,UWS,p300_sl_tony,0.64880952381,3,84,84
MP_k,CONTROL_ADULT,p300_cz,0.731428571429,3,35,35
AK_k,CONTROL_ADULT,p300_cz,0.82177734375,1,64,64
MB_k,CONTROL_ADULT,p300_cz,0.642631427751,1,59,59
OK_k,CONTROL_ADULT,p300_cz,0.685207100592,1,65,65
AD_k,CONTROL_ADULT,p300_cz,0.760946745562,1,65,65
PR_k,CONTROL_ADULT,p300_cz,0.739501953125,1,64,64
MD_k,CONTROL_ADULT,p300_cz,0.667584940312,1,66,66
C03,CONTROL_CHILDREN,p300_cz,0.816529492455,4,54,54
C07,CONTROL_CHILDREN,p300_cz,0.74227358237,4,61,61
C01,CONTROL_CHILDREN,p300_cz,0.821640903686,4,58,58
C02,CONTROL_CHILDREN,p300_cz,0.817637877211,4,62,62
C05,CONTROL_CHILDREN,p300_cz,0.791838842975,4,44,44
C04,CONTROL_CHILDREN,p300_cz,0.771913805698,4,74,74
C10,CONTROL_CHILDREN,p300_cz,0.695133149679,4,66,66
C11,CONTROL_CHILDREN,p300_cz,0.691263014939,4,47,47
C09,CONTROL_CHILDREN,p300_cz,0.598615916955,4,68,68
JN,EMCS,p300_cz,0.643250688705,3,66,66
MZ,EMCS,p300_cz,0.4723183391,3,34,34
MZ,EMCS,p300_cz,0.680211202938,2,66,66
ML,EMCS,p300_cz,0.7188,1,50,50
AS,EMCS,p300_cz,0.619927159209,3,62,62
MB,EMCS,p300_cz,0.698753462604,3,38,38
KP,MCS-,p300_cz,0.689718934911,3,52,52
JK,MCS-,p300_cz,0.598403696702,3,69,69
DR,MCS-,p300_cz,0.540633608815,3,66,66
JK,MCS-,p300_cz,0.565007351397,4,69,69
WS,MCS-,p300_cz,0.690538194444,1,48,48
DR,MCS-,p300_cz,0.396386005383,1,51,51
DR,MCS-,p300_cz,0.580729166667,2,48,48
JK,MCS-,p300_cz,0.495777819478,2,73,73
WS,MCS-,p300_cz,0.565656565657,2,33,33
WS,MCS+,p300_cz,0.648283038502,3,31,31
MD,MCS+,p300_cz,0.620204081633,1,70,70
MB,MCS+,p300_cz,0.699617346939,2,56,56
MW,UWS,p300_cz,0.579758433986,3,98,98
JC,UWS,p300_cz,0.534466795724,4,109,109
MW,UWS,p300_cz,0.576111111111,1,60,60
JS,UWS,p300_cz,0.511341791619,1,102,102
RN,UWS,p300_cz,0.674744897959,1,28,28
